{"photos":{"page":1,"pages":1905,"perpage":100,"total":190409,"photo":[{"id":"51885587729","owner":"195034514@N04","secret":"53568f3884","server":"65535","farm":66,"title":"FUNNY CAT Youtube thumbnail","ispublic":1,"isfriend":0,"isfamily":0},{"id":"51885913295","owner":"154265995@N03","secret":"57cd93b74d","server":"65535","farm":66,"title":"Kool cat","ispublic":1,"isfriend":0,"isfamily":0},{"id":"51885894245","owner":"28232962@N05","secret":"8b738cc17d","server":"65535","farm":66,"title":"April's Kittens.","ispublic":1,"isfriend":0,"isfamily":0},{"id":"51885562044","owner":"132136915@N08","secret":"fae84a7fba","server":"65535","farm":66,"title":"Pseudohydnum gelatinosum","ispublic":1,"isfriend":0,"isfamily":0},{"id":"51884253202","owner":"39963395@N08","secret":"d3d2a29ddb","server":"65535","farm":66,"title":"Bad Cat Panther","ispublic":1,"isfriend":0,"isfamily":0},{"id":"51885220676","owner":"39963395@N08","secret":"d854bda643","server":"65535","farm":66,"title":"Bad Cat Panther","ispublic":1,"isfriend":0,"isfamily":0},{"id":"51884253192","owner":"39963395@N08","secret":"6132720408","server":"65535","farm":66,"title":"Bad Cat Panther","ispublic":1,"isfriend":0,"isfamily":0},{"id":"51885543194","owner":"39963395@N08","secret":"e89e01079b","server":"65535","farm":66,"title":"Bad Cat Panther","ispublic":1,"isfriend":0,"isfamily":0},{"id":"51884253172","owner":"39963395@N08","secret":"78e6f14ac4","server":"65535","farm":66,"title":"Bad Cat Panther","ispublic":1,"isfriend":0,"isfamily":0},{"id":"51884253147","owner":"39963395@N08","secret":"88ca9a77a5","server":"65535","farm":66,"title":"Bad Cat Panther","ispublic":1,"isfriend":0,"isfamily":0},{"id":"51885543154","owner":"39963395@N08","secret":"ffcbcbaacb","server":"65535","farm":66,"title":"Bad Cat Panther","ispublic":1,"isfriend":0,"isfamily":0},{"id":"51885870925","owner":"39963395@N08","secret":"da682772ce","server":"65535","farm":66,"title":"Bad Cat Panther","ispublic":1,"isfriend":0,"isfamily":0},{"id":"51885220636","owner":"39963395@N08","secret":"33b8c119e4","server":"65535","farm":66,"title":"Bad Cat Panther","ispublic":1,"isfriend":0,"isfamily":0},{"id":"51884253142","owner":"39963395@N08","secret":"4f6c54e419","server":"65535","farm":66,"title":"Bad Cat Panther","ispublic":1,"isfriend":0,"isfamily":0},{"id":"51885300338","owner":"39963395@N08","secret":"6198d8351c","server":"65535","farm":66,"title":"Bad Cat Panther","ispublic":1,"isfriend":0,"isfamily":0},{"id":"51885220606","owner":"39963395@N08","secret":"62e2e530b2","server":"65535","farm":66,"title":"Bad Cat Panther","ispublic":1,"isfriend":0,"isfamily":0},{"id":"51884253097","owner":"39963395@N08","secret":"fa2f98400f","server":"65535","farm":66,"title":"Bad Cat Panther","ispublic":1,"isfriend":0,"isfamily":0},{"id":"51884253082","owner":"39963395@N08","secret":"1fd5612b6c","server":"65535","farm":66,"title":"Bad Cat Panther","ispublic":1,"isfriend":0,"isfamily":0},{"id":"51885220576","owner":"39963395@N08","secret":"4421aff6d6","server":"65535","farm":66,"title":"Bad Cat Panther","ispublic":1,"isfriend":0,"isfamily":0},{"id":"51885220601","owner":"39963395@N08","secret":"e79f1214b3","server":"65535","farm":66,"title":"Bad Cat Panther","ispublic":1,"isfriend":0,"isfamily":0},{"id":"51885543079","owner":"39963395@N08","secret":"9fdd05e32f","server":"65535","farm":66,"title":"Bad Cat Panther","ispublic":1,"isfriend":0,"isfamily":0},{"id":"51885300273","owner":"39963395@N08","secret":"5f02c0e40c","server":"65535","farm":66,"title":"Bad Cat Panther","ispublic":1,"isfriend":0,"isfamily":0},{"id":"51884252997","owner":"39963395@N08","secret":"b2670f0820","server":"65535","farm":66,"title":"Bad Cat Panther","ispublic":1,"isfriend":0,"isfamily":0},{"id":"51884252977","owner":"39963395@N08","secret":"89343edb74","server":"65535","farm":66,"title":"Bad Cat Panther","ispublic":1,"isfriend":0,"isfamily":0},{"id":"51885538049","owner":"190550837@N04","secret":"89dfe6b241","server":"65535","farm":66,"title":"Window with a Cat. Seen in Kaunas, Lithuania","ispublic":1,"isfriend":0,"isfamily":0},{"id":"51885531879","owner":"194844750@N06","secret":"67fda43ea4","server":"65535","farm":66,"title":"DSC_7298 \"Cat\"","ispublic":1,"isfriend":0,"isfamily":0},{"id":"51885528764","owner":"59919480@N06","secret":"a90a28a627","server":"65535","farm":66,"title":"Black and white","ispublic":1,"isfriend":0,"isfamily":0},{"id":"51885204536","owner":"17147648@N00","secret":"b8344e7487","server":"65535","farm":66,"title":"Happy Valentine\u2019s Day from the cat","ispublic":1,"isfriend":0,"isfamily":0},{"id":"51885521429","owner":"191089637@N07","secret":"d489ed89e3","server":"65535","farm":66,"title":"Harry the cat posing for the artist","ispublic":1,"isfriend":0,"isfamily":0},{"id":"51885803955","owner":"156688160@N05","secret":"6fa3d20eab","server":"65535","farm":66,"title":"He ain't heavy","ispublic":1,"isfriend":0,"isfamily":0},{"id":"51885235298","owner":"189758884@N06","secret":"1e6be19b98","server":"65535","farm":66,"title":"Cat","ispublic":1,"isfriend":0,"isfamily":0},{"id":"51885230508","owner":"16455799@N02","secret":"bfaf562dae","server":"65535","farm":66,"title":"Troy","ispublic":1,"isfriend":0,"isfamily":0},{"id":"51885147301","owner":"66849424@N07","secret":"e945aa7774","server":"65535","farm":66,"title":"Do not disturb, we are trying too relax up here!!","ispublic":1,"isfriend":0,"isfamily":0},{"id":"51885775425","owner":"82103247@N00","secret":"bece4b460d","server":"65535","farm":66,"title":"IMG_8989","ispublic":1,"isfriend":0,"isfamily":0},{"id":"51885775330","owner":"82103247@N00","secret":"fcbe6c2876","server":"65535","farm":66,"title":"IMG_8988","ispublic":1,"isfriend":0,"isfamily":0},{"id":"51884158017","owner":"82103247@N00","secret":"38d45a1dfb","server":"65535","farm":66,"title":"IMG_8987","ispublic":1,"isfriend":0,"isfamily":0},{"id":"51885792020","owner":"185027345@N04","secret":"31f97331eb","server":"65535","farm":66,"title":"Cat in the box","ispublic":1,"isfriend":0,"isfamily":0},{"id":"51885453699","owner":"152709048@N02","secret":"cc8e8f07f6","server":"65535","farm":66,"title":"Animals in Citylife","ispublic":1,"isfriend":0,"isfamily":0},{"id":"51885121326","owner":"10059155@N05","secret":"3a56bb8fcf","server":"65535","farm":66,"title":"The Mighty Hunter Taking a Well Deserved Rest","ispublic":1,"isfriend":0,"isfamily":0},{"id":"51885391229","owner":"48119396@N00","secret":"a9fc9ea037","server":"0","farm":0,"title":"All your gods are belong to us","ispublic":1,"isfriend":0,"isfamily":0},{"id":"51884149417","owner":"96657002@N06","secret":"8975b93f5a","server":"65535","farm":66,"title":"Hiding in Plain Sight","ispublic":1,"isfriend":0,"isfamily":0},{"id":"51884149127","owner":"133810234@N02","secret":"19f4d838a5","server":"65535","farm":66,"title":"Lacey the Dalek Cat on Mars","ispublic":1,"isfriend":0,"isfamily":0},{"id":"51885736975","owner":"48119396@N00","secret":"f3c5c43ae9","server":"65535","farm":66,"title":"Neptune - Mars Attacks!","ispublic":1,"isfriend":0,"isfamily":0},{"id":"51885407049","owner":"48119396@N00","secret":"297563463a","server":"65535","farm":66,"title":"Britannia - Mars Attacks!","ispublic":1,"isfriend":0,"isfamily":0},{"id":"51885084656","owner":"48119396@N00","secret":"3083aa7fce","server":"65535","farm":66,"title":"Rama - Mars Attacks!","ispublic":1,"isfriend":0,"isfamily":0},{"id":"51884146997","owner":"130602894@N02","secret":"f635d58652","server":"65535","farm":66,"title":"Look 2049 - In the Heat of the Battle","ispublic":1,"isfriend":0,"isfamily":0},{"id":"51885415954","owner":"9600117@N03","secret":"278b597298","server":"65535","farm":66,"title":"\u201cDimming the Sun Could Spell Doom for Humanity, Experts Warn\u201d","ispublic":1,"isfriend":0,"isfamily":0},{"id":"51885414439","owner":"151393640@N03","secret":"0b8cc30c10","server":"65535","farm":66,"title":"314.","ispublic":1,"isfriend":0,"isfamily":0},{"id":"51885753915","owner":"33050285@N03","secret":"9becfeb427","server":"65535","farm":66,"title":"Winter, 2021","ispublic":1,"isfriend":0,"isfamily":0},{"id":"51885425509","owner":"33050285@N03","secret":"6e63745cec","server":"65535","farm":66,"title":"Winter, 2021","ispublic":1,"isfriend":0,"isfamily":0},{"id":"51885103701","owner":"33050285@N03","secret":"ebc44045a2","server":"65535","farm":66,"title":"Winter, 2021","ispublic":1,"isfriend":0,"isfamily":0},{"id":"51885181728","owner":"33050285@N03","secret":"e6dc902e68","server":"65535","farm":66,"title":"Luna","ispublic":1,"isfriend":0,"isfamily":0},{"id":"51885425339","owner":"33050285@N03","secret":"c217e80fa8","server":"65535","farm":66,"title":"Winter, 2021","ispublic":1,"isfriend":0,"isfamily":0},{"id":"51885080601","owner":"129009394@N08","secret":"dc1ea8a0f3","server":"65535","farm":66,"title":"Style #1442","ispublic":1,"isfriend":0,"isfamily":0},{"id":"51885374359","owner":"194959319@N03","secret":"17d207764d","server":"65535","farm":66,"title":"M\u00ecnh c\u00f3 ng\u01b0\u1eddi y\u00eau r\u1ed3i nha \u0110\u1ee3i \u0111\u1ebfn l\u00fac th\u00edch h\u1ee3p m\u00ecnh s\u1ebd c\u00f4ng khai .V\u00ec m\u1ed1i quan h\u1ec7 n\u00e0y ch\u01b0a \u1ed5n l\u1eafm l\u00fac ng\u1ee7 th\u00ec th\u1ea5y, l\u00fac t\u1ec9nh th\u00ec kh\u00f4ng.","ispublic":1,"isfriend":0,"isfamily":0},{"id":"51884100632","owner":"57862012@N06","secret":"e1128938b9","server":"65535","farm":66,"title":"Babyfaced senior","ispublic":1,"isfriend":0,"isfamily":0},{"id":"51885060616","owner":"145985392@N06","secret":"7434eb731d","server":"65535","farm":66,"title":"Schmusen mit Mama - cuddling with mom","ispublic":1,"isfriend":0,"isfamily":0},{"id":"51885708745","owner":"186307695@N02","secret":"9bce178f14","server":"65535","farm":66,"title":"Ostseekatze","ispublic":1,"isfriend":0,"isfamily":0},{"id":"51885052886","owner":"154482106@N03","secret":"3b95e6a16c","server":"65535","farm":66,"title":"Lines On My Cat Harry  -  A Villanelle","ispublic":1,"isfriend":0,"isfamily":0},{"id":"51885680230","owner":"194631674@N08","secret":"149b3bebc2","server":"65535","farm":66,"title":"Open for OPD & IPD","ispublic":1,"isfriend":0,"isfamily":0},{"id":"51885673550","owner":"111135863@N04","secret":"60cbd538f4","server":"65535","farm":66,"title":"C\u00f4i c\u00fat","ispublic":1,"isfriend":0,"isfamily":0},{"id":"51884042647","owner":"183172956@N07","secret":"ffe594b3cb","server":"65535","farm":66,"title":"Kesswil (Thurgau)","ispublic":1,"isfriend":0,"isfamily":0},{"id":"51885330469","owner":"194592175@N07","secret":"91d0ffca15","server":"65535","farm":66,"title":"Top 6 kh\u00e1ch s\u1ea1n con nh\u1ed9ng \u0111\u01b0\u1ee3c h\u1ed9i x\u00ea d\u1ecbch m\u00ea \u0111\u1eafm t\u1ea1i Vi\u1ec7t Nam","ispublic":1,"isfriend":0,"isfamily":0},{"id":"51885312479","owner":"194545585@N08","secret":"4a4f7eabfa","server":"65535","farm":66,"title":"Buy Cat Carriers Online at Best Prices | Solace Cart LLC","ispublic":1,"isfriend":0,"isfamily":0},{"id":"51885304939","owner":"20127130@N02","secret":"99970eedc0","server":"65535","farm":66,"title":"Meditating in the rain","ispublic":1,"isfriend":0,"isfamily":0},{"id":"51885044523","owner":"168781306@N06","secret":"c692cd1712","server":"65535","farm":66,"title":"Mustache my cat \ud83d\udc08","ispublic":1,"isfriend":0,"isfamily":0},{"id":"51885287009","owner":"193658708@N02","secret":"27c5ed0cc1","server":"65535","farm":66,"title":"Dogs Vs Cats Differences","ispublic":1,"isfriend":0,"isfamily":0},{"id":"51885612375","owner":"194125006@N03","secret":"89c953c0d6","server":"65535","farm":66,"title":"A small series of our snowy winter","ispublic":1,"isfriend":0,"isfamily":0},{"id":"51885274139","owner":"194472470@N02","secret":"104cb513e5","server":"65535","farm":66,"title":"Sweet little cat( my camera couldnt make it better)","ispublic":1,"isfriend":0,"isfamily":0},{"id":"51885270144","owner":"194030675@N08","secret":"884c4629ec","server":"65535","farm":66,"title":"","ispublic":1,"isfriend":0,"isfamily":0},{"id":"51885256784","owner":"148653216@N06","secret":"64e0064621","server":"65535","farm":66,"title":"\ud83c\udf37 2\/22\u306f\u30cb\u30e3\u30f3\u30cb\u30e3\u30f3\u30cb\u30e3\u30f3\u306b\u56e0\u3093\u3067\u732b\u306e\u65e5\ud83d\udc31\ud83d\udc3e \u732b\u3061\u3083\u3093\u67c4\u306e\u30a2\u30a4\u30c6\u30e0\u306f\u898b\u3066\u3044\u308b\u3060\u3051\u3067\u7652\u3055\u308c\u307e\u3059\u306d\u263a\ufe0f . . #\u53cb\u7985\u6587\u5eab #yuzenbunko #\u8ca1\u5e03 #\u9769\u5c0f\u7269 #\u30ec\u30b6\u30fc #leather #\u65e5\u672c\u88fd #madeinjapan #\u3082\u306e\u3065\u304f\u308a #\u5f69\u8272 #\u8077\u4eba #\u30e2\u30c0\u30f3 #\u30c7\u30b6\u30a4\u30f3 #\u732b\u67c4 #\u732b #\u30d7\u30c1\u30ae\u30d5\u30c8 #\u30b3\u30f3\u30d1\u30af\u30c8","ispublic":1,"isfriend":0,"isfamily":0},{"id":"51883967247","owner":"137230549@N03","secret":"df3d0ec936","server":"65535","farm":66,"title":"Bobcat Mom","ispublic":1,"isfriend":0,"isfamily":0},{"id":"51884925636","owner":"48516443@N02","secret":"39abcde896","server":"65535","farm":66,"title":"Dave (the cat)","ispublic":1,"isfriend":0,"isfamily":0},{"id":"51885241599","owner":"7727521@N05","secret":"db7615f1fd","server":"65535","farm":66,"title":"looking up","ispublic":1,"isfriend":0,"isfamily":0},{"id":"51884986308","owner":"148345076@N06","secret":"6f9cc86e6b","server":"65535","farm":66,"title":"taking my time... OOH look the dustbunnies with my sleeping cat !","ispublic":1,"isfriend":0,"isfamily":0},{"id":"51884983268","owner":"14829735@N00","secret":"2f025a20f1","server":"65535","farm":66,"title":"The harder they come, the harder they fall, one and all \ud83c\uddef\ud83c\uddf2","ispublic":1,"isfriend":0,"isfamily":0},{"id":"51885201719","owner":"98045547@N08","secret":"b27b8d5b53","server":"65535","farm":66,"title":"northern cat-eyed snake peeking out","ispublic":1,"isfriend":0,"isfamily":0},{"id":"51883915787","owner":"194691831@N06","secret":"8cb14a088e","server":"65535","farm":66,"title":"Quality Pets Care","ispublic":1,"isfriend":0,"isfamily":0},{"id":"51884960943","owner":"194691831@N06","secret":"036e98fbc4","server":"65535","farm":66,"title":"Quality Pets Care","ispublic":1,"isfriend":0,"isfamily":0},{"id":"51884960923","owner":"194691831@N06","secret":"3ecb60e98b","server":"65535","farm":66,"title":"Quality Pets Care","ispublic":1,"isfriend":0,"isfamily":0},{"id":"51883915737","owner":"194691831@N06","secret":"ebf0da70df","server":"65535","farm":66,"title":"Quality Pets Care","ispublic":1,"isfriend":0,"isfamily":0},{"id":"51883915717","owner":"194691831@N06","secret":"eccff639ec","server":"65535","farm":66,"title":"Quality Pets Care","ispublic":1,"isfriend":0,"isfamily":0},{"id":"51884960863","owner":"194691831@N06","secret":"cc256a0949","server":"65535","farm":66,"title":"Quality Pets Care","ispublic":1,"isfriend":0,"isfamily":0},{"id":"51883915707","owner":"194691831@N06","secret":"094e0fc49b","server":"65535","farm":66,"title":"Quality Pets Care","ispublic":1,"isfriend":0,"isfamily":0},{"id":"51884960813","owner":"194691831@N06","secret":"92536f1b33","server":"65535","farm":66,"title":"Quality Pets Care","ispublic":1,"isfriend":0,"isfamily":0},{"id":"51885204854","owner":"194691831@N06","secret":"509420ff55","server":"65535","farm":66,"title":"Quality Pets Care","ispublic":1,"isfriend":0,"isfamily":0},{"id":"51884886971","owner":"194691831@N06","secret":"0a9ba28995","server":"65535","farm":66,"title":"Quality Pets Care","ispublic":1,"isfriend":0,"isfamily":0},{"id":"51885532625","owner":"194691831@N06","secret":"d78e6a96de","server":"65535","farm":66,"title":"Quality Pets Care","ispublic":1,"isfriend":0,"isfamily":0},{"id":"51883915642","owner":"194691831@N06","secret":"4f79f2723b","server":"65535","farm":66,"title":"Quality Pets Care","ispublic":1,"isfriend":0,"isfamily":0},{"id":"51883915592","owner":"194691831@N06","secret":"e5286a3053","server":"65535","farm":66,"title":"Quality Pets Care","ispublic":1,"isfriend":0,"isfamily":0},{"id":"51885204824","owner":"194691831@N06","secret":"a9b32b87ea","server":"65535","farm":66,"title":"Quality Pets Care","ispublic":1,"isfriend":0,"isfamily":0},{"id":"51883903862","owner":"194694457@N04","secret":"efaeaffd28","server":"65535","farm":66,"title":"Underwear","ispublic":1,"isfriend":0,"isfamily":0},{"id":"51885192624","owner":"194841555@N04","secret":"046d4fe263","server":"65535","farm":66,"title":"truy\u1ec7n ng\u00f4n t\u00ecnh hay nh\u1ea5t  2022","ispublic":1,"isfriend":0,"isfamily":0},{"id":"51883903367","owner":"194841555@N04","secret":"a820eeb39d","server":"65535","farm":66,"title":"Top 10 truy\u1ec7n ng\u00f4n t\u00ecnh hay nh\u1ea5t  2022","ispublic":1,"isfriend":0,"isfamily":0},{"id":"51885190569","owner":"194694457@N04","secret":"cba5476e80","server":"65535","farm":66,"title":"Underwear","ispublic":1,"isfriend":0,"isfamily":0},{"id":"51884872326","owner":"194841555@N04","secret":"c1fb7f4831","server":"65535","farm":66,"title":"10 truy\u1ec7n full online m\u1edbi ra hay nh\u1ea5t","ispublic":1,"isfriend":0,"isfamily":0},{"id":"51883900172","owner":"194841555@N04","secret":"31f03c04a6","server":"65535","farm":66,"title":"Top 10 truy\u1ec7n full online m\u1edbi ra hay nh\u1ea5t 2022","ispublic":1,"isfriend":0,"isfamily":0},{"id":"51883899317","owner":"194841555@N04","secret":"f571d5fb9c","server":"65535","farm":66,"title":"truy\u1ec7n full online hay nh\u1ea5t 2022","ispublic":1,"isfriend":0,"isfamily":0},{"id":"51885516080","owner":"194841555@N04","secret":"1eae83bfa5","server":"65535","farm":66,"title":"Top 10 truy\u1ec7n full online hay nh\u1ea5t 2022","ispublic":1,"isfriend":0,"isfamily":0},{"id":"51884861021","owner":"30140011@N04","secret":"a8e1f37fec","server":"0","farm":0,"title":"TrailCam 15\/2\/22","ispublic":1,"isfriend":0,"isfamily":0}]},"stat":"ok"}
